1. Summary
Meeting title	Python training
Attended participants	9
Start time	9/9/22, 8:28:05 AM
End time	9/9/22, 10:09:18 AM
Meeting duration	1h 41m 12s
Average attendance time	1h 36m 47s

2. Participants
Name	First join	Last leave	In-meeting duration	Email	Participant ID (UPN)	Role
Diego Jauregui Salvatierra	9/9/22, 8:28:10 AM	9/9/22, 10:09:16 AM	1h 41m 5s	Diego.Jauregui@jala.university	Diego.Jauregui@jala.university	Presenter
Camilo Villalba Sanz	9/9/22, 8:30:24 AM	9/9/22, 10:09:18 AM	1h 38m 53s	Camilo.Villalba@jala.university	Camilo.Villalba@jala.university	Presenter
Andres Galvis Bolivar	9/9/22, 8:30:45 AM	9/9/22, 10:09:14 AM	1h 38m 28s	Andres.Galvis@jala.university	Andres.Galvis@jala.university	Presenter
Sergio Mallea Morales	9/9/22, 8:30:50 AM	9/9/22, 10:09:17 AM	1h 38m 27s	Sergio.Mallea@jala.university	Sergio.Mallea@jala.university	Presenter
Martin Ferreyra	9/9/22, 8:31:20 AM	9/9/22, 10:09:15 AM	1h 37m 54s	Martin.Ferreyra@jala.university	Martin.Ferreyra@jala.university	Presenter
Adrian Clavijo Lopez	9/9/22, 8:31:45 AM	9/9/22, 10:09:15 AM	1h 37m 30s	Adrian.Clavijo@jala.university	Adrian.Clavijo@jala.university	Presenter
Jason Pineda Serna	9/9/22, 8:32:11 AM	9/9/22, 10:09:14 AM	1h 37m 3s	Jason.Pineda@jala.university	Jason.Pineda@jala.university	Presenter
Maria Marquina Guevara	9/9/22, 8:32:13 AM	9/9/22, 10:09:13 AM	1h 36m 59s	Maria.Marquina@jala.university	Maria.Marquina@jala.university	Organizer
Jesus Vallecilla Solano	9/9/22, 8:36:08 AM	9/9/22, 10:00:49 AM	1h 24m 41s	Jesus.Vallecilla@jala.university	Jesus.Vallecilla@jala.university	Presenter

3. In-Meeting activities
Name	Join time	Leave time	Duration	Email	Role
Diego Jauregui Salvatierra	9/9/22, 8:28:10 AM	9/9/22, 10:09:16 AM	1h 41m 5s	Diego.Jauregui@jala.university	Presenter
Camilo Villalba Sanz	9/9/22, 8:30:24 AM	9/9/22, 10:09:18 AM	1h 38m 53s	Camilo.Villalba@jala.university	Presenter
Andres Galvis Bolivar	9/9/22, 8:30:45 AM	9/9/22, 10:09:14 AM	1h 38m 28s	Andres.Galvis@jala.university	Presenter
Sergio Mallea Morales	9/9/22, 8:30:50 AM	9/9/22, 10:09:17 AM	1h 38m 27s	Sergio.Mallea@jala.university	Presenter
Martin Ferreyra	9/9/22, 8:31:20 AM	9/9/22, 10:09:15 AM	1h 37m 54s	Martin.Ferreyra@jala.university	Presenter
Adrian Clavijo Lopez	9/9/22, 8:31:45 AM	9/9/22, 10:09:15 AM	1h 37m 30s	Adrian.Clavijo@jala.university	Presenter
Jason Pineda Serna	9/9/22, 8:32:11 AM	9/9/22, 10:09:14 AM	1h 37m 3s	Jason.Pineda@jala.university	Presenter
Maria Marquina Guevara	9/9/22, 8:32:13 AM	9/9/22, 10:09:13 AM	1h 36m 59s	Maria.Marquina@jala.university	Organizer
Jesus Vallecilla Solano	9/9/22, 8:36:08 AM	9/9/22, 10:00:49 AM	1h 24m 41s	Jesus.Vallecilla@jala.university	Presenter
